dump.vcd
$date
	Wed Sep 20 17:03:16 2023
$end
$version
	QuestaSim Version 10.6c
$end
$timescale
	1ns
$end

$scope module uvm_root $end
$upscope $end

$scope module tb $end

$scope module dut $end
$upscope $end
$upscope $end

$scope begin uvm_pkg $end
$var parameter 32 ! UVM_HDL_MAX_WIDTH $end
$var parameter 32 " UVM_STREAMBITS $end
$var parameter 32 # UVM_RADIX $end
$var parameter 32 $ UVM_MACRO_NUMFLAGS $end
$var parameter 32 % UVM_DEFAULT $end
$var parameter 32 & UVM_ALL_ON $end
$var parameter 32 ' UVM_FLAGS_ON $end
$var parameter 32 ( UVM_FLAGS_OFF $end
$var parameter 32 ) UVM_COPY $end
$var parameter 32 * UVM_NOCOPY $end
$var parameter 32 + UVM_COMPARE $end
$var parameter 32 , UVM_NOCOMPARE $end
$var parameter 32 - UVM_PRINT $end
$var parameter 32 . UVM_NOPRINT $end
$var parameter 32 / UVM_RECORD $end
$var parameter 32 0 UVM_NORECORD $end
$var parameter 32 1 UVM_PACK $end
$var parameter 32 2 UVM_NOPACK $end
$var parameter 32 3 UVM_PHYSICAL $end
$var parameter 32 4 UVM_ABSTRACT $end
$var parameter 32 5 UVM_READONLY $end
$var parameter 32 6 UVM_NODEFPRINT $end
$var parameter 32 7 UVM_MACRO_EXTRAS $end
$var parameter 32 8 UVM_FLAGS $end
$var parameter 32 9 UVM_UNPACK $end
$var parameter 32 : UVM_CHECK_FIELDS $end
$var parameter 32 ; UVM_END_DATA_EXTRA $end
$var parameter 32 < UVM_START_FUNCS $end
$var parameter 32 = UVM_SET $end
$var parameter 32 > UVM_SETINT $end
$var parameter 32 ? UVM_SETOBJ $end
$var parameter 32 @ UVM_SETSTR $end
$var parameter 32 A UVM_END_FUNCS $end
$var parameter 32 B UVM_STR_CRC_POLYNOMIAL $end
$var parameter 32 C UVM_STDOUT $end
$var parameter 32 D UVM_LINE_WIDTH $end
$var parameter 32 E UVM_NUM_LINES $end
$var parameter 32 F UVM_SMALL_STRING $end
$var parameter 32 G UVM_LARGE_STRING $end
$var reg 1 H uvm_start_uvm_declarations $end
$var integer 32 I uvm_global_random_seed $end
$var integer 32 J UVM_UNBOUNDED_CONNECTIONS $end

$scope function uvm_hdl_check_path $end
$var integer 32 K uvm_hdl_check_path $end
$upscope $end

$scope function uvm_hdl_deposit $end
$var integer 32 L uvm_hdl_deposit $end
$var reg 1024 M value [1023:0] $end
$upscope $end

$scope function uvm_hdl_force $end
$var integer 32 N uvm_hdl_force $end
$var reg 1024 O value [1023:0] $end
$upscope $end

$scope task uvm_hdl_force_time $end
$var reg 1024 P value [1023:0] $end
$var time 64 Q force_time $end
$upscope $end

$scope function uvm_hdl_release_and_read $end
$var integer 32 R uvm_hdl_release_and_read $end
$var reg 1024 S value [1023:0] $end
$upscope $end

$scope function uvm_hdl_release $end
$var integer 32 T uvm_hdl_release $end
$upscope $end

$scope function uvm_hdl_read $end
$var integer 32 U uvm_hdl_read $end
$var reg 1024 V value [1023:0] $end
$upscope $end

$scope function uvm_dpi_get_next_arg_c $end
$upscope $end

$scope function uvm_dpi_get_tool_name_c $end
$upscope $end

$scope function uvm_dpi_get_tool_version_c $end
$upscope $end

$scope function uvm_dpi_get_next_arg $end
$upscope $end

$scope function uvm_dpi_get_tool_name $end
$upscope $end

$scope function uvm_dpi_get_tool_version $end
$upscope $end

$scope function uvm_dpi_regcomp $end
$upscope $end

$scope function uvm_dpi_regexec $end
$var integer 32 W uvm_dpi_regexec $end
$upscope $end

$scope function uvm_dpi_regfree $end
$upscope $end

$scope function uvm_re_match $end
$var integer 32 X uvm_re_match $end
$upscope $end

$scope function uvm_dump_re_cache $end
$upscope $end

$scope function uvm_glob_to_re $end
$upscope $end

$scope function uvm_revision_string $end
$upscope $end

$scope function uvm_radix_to_string $end
$var integer 32 Y radix $end
$upscope $end

$scope function uvm_instance_scope $end
$var reg 8 Z c [7:0] $end
$var integer 32 [ pos $end
$upscope $end

$scope function uvm_oneway_hash $end
$var integer 32 \ uvm_oneway_hash $end
$var integer 32 ] seed $end
$var reg 1 ^ msb $end
$var reg 8 _ current_byte [7:0] $end
$var reg 32 ` crc1 [31:0] $end
$upscope $end

$scope function uvm_create_random_seed $end
$var integer 32 a uvm_create_random_seed $end
$upscope $end

$scope function uvm_object_value_str $end
$upscope $end

$scope function uvm_leaf_scope $end
$var reg 8 b scope_separator [7:0] $end
$var reg 8 c bracket_match [7:0] $end
$var integer 32 d pos $end
$var integer 32 e bmatches $end
$upscope $end

$scope function uvm_vector_to_string $end
$var reg 4096 f value [4095:0] $end
$var integer 32 g size $end
$var integer 32 h radix $end
$upscope $end

$scope function uvm_get_array_index_int $end
$var integer 32 i uvm_get_array_index_int $end
$var reg 1 j is_wildcard $end
$var integer 32 k i $end
$upscope $end

$scope function uvm_get_array_index_string $end
$var reg 1 l is_wildcard $end
$var integer 32 m i $end
$upscope $end

$scope function uvm_is_array $end
$var reg 1 n uvm_is_array $end
$upscope $end

$scope function uvm_has_wildcard $end
$upscope $end

$scope task run_test $end
$upscope $end

$scope function global_stop_request $end
$upscope $end

$scope function set_global_timeout $end
$var time 64 o timeout $end
$var reg 1 p overridable $end
$upscope $end

$scope function set_global_stop_timeout $end
$var time 64 q timeout $end
$upscope $end

$scope function uvm_report_enabled $end
$var reg 1 r uvm_report_enabled $end
$var integer 32 s verbosity $end
$var reg 2 t severity [1:0] $end
$upscope $end

$scope function uvm_report $end
$var reg 2 u severity [1:0] $end
$var integer 32 v verbosity $end
$var integer 32 w line $end
$upscope $end

$scope function uvm_report_info $end
$var integer 32 x verbosity $end
$var integer 32 y line $end
$upscope $end

$scope function uvm_report_warning $end
$var integer 32 z verbosity $end
$var integer 32 { line $end
$upscope $end

$scope function uvm_report_error $end
$var integer 32 | verbosity $end
$var integer 32 } line $end
$upscope $end

$scope function uvm_report_fatal $end
$var integer 32 ~ verbosity $end
$var integer 32 !! line $end
$upscope $end

$scope function uvm_string_to_severity $end
$var reg 1 "! uvm_string_to_severity $end
$var reg 2 #! sev [1:0] $end
$upscope $end

$scope function uvm_string_to_action $end
$upscope $end

$scope function set_config_int $end
$var reg 4096 $! value [4095:0] $end
$upscope $end

$scope function set_config_object $end
$var reg 1 %! clone $end
$upscope $end

$scope function set_config_string $end
$upscope $end

$scope function uvm_is_match $end
$var reg 1 &! uvm_is_match $end
$upscope $end

$scope function uvm_string_to_bits $end
$var reg 115200 '! uvm_string_to_bits [115199:0] $end
$upscope $end

$scope function uvm_bits_to_string $end
$var reg 115200 (! str [115199:0] $end
$upscope $end

$scope task uvm_wait_for_nba_region $end
$var integer 32 )! nba $end
$var integer 32 *! next_nba $end
$upscope $end

$scope function uvm_split_string $end
$upscope $end

$scope function uvm_hdl_concat2string $end
$upscope $end
$upscope $end

$scope begin fifo_top_sv_unit $end
$upscope $end

$scope begin std $end
$upscope $end

$scope begin questa_uvm_pkg $end
$upscope $end
$enddefinitions $end
#0
$dumpvars
0l
0n
0"!
b0 #!
bx '!
bx (!
bx M
bx O
bx P
bx S
bx V
1H
0^
b1110001 _
b10111100001110110011011111000000 `
bx f
0j
0p
0r
b0 t
b0 u
bx $!
0%!
0&!
b10000000000 !
b1000000000000 "
b1111000000000000000000000000 #
b10001 $
b10101010101 %
b101010101 &
b101010101 '
b0 (
b1 )
b10 *
b100 +
b1000 ,
b10000 -
b100000 .
b1000000 /
b10000000 0
b100000000 1
b1000000000 2
b10000000000000 3
b100000000000000 4
b1000000000000000 5
b10000000000000000 6
b100000000000000000 7
b100000000000000001 8
b100000000000000010 9
b100000000000000011 :
b100000000000000100 ;
b100000000000000101 <
b100000000000000110 =
b100000000000000110 >
b100000000000000111 ?
b100000000000001000 @
b100000000000001000 A
b100110000010001110110110110 B
b1 C
b1111000 D
b1111000 E
b1110111111 F
b11100000111111111 G
b0 Y
b0 b
b0 c
b0 d
b0 e
b0 m
b0 K
b0 L
b0 N
b0 R
b0 T
b0 U
b1 W
b0 X
b1101001011000001111100000011110 I
b101110 Z
b111 [
b10101001001010011011110001100001 \
b1101001011000001111100000011110 ]
b11111110111010000110101000101110 a
b0 g
b0 h
b0 i
b0 k
b111110100 s
b0 v
b0 w
b11001000 x
b11011001 y
b0 z
b0 {
b0 |
b0 }
b0 ~
b0 !!
b100100 )!
b100100 *!
b11111111111111111111111111111111 J
bx Q
bx o
bx q
$end
#20
b100101 *!
b10101001001010011011110001100010 a
b100101 )!
#40
b100110 *!
b10101001001010011011110001100100 a
b100110 )!
#60
b100111 *!
b10101001001010011011110001100111 a
b100111 )!
#80
b101000 *!
b10101001001010011011110001101011 a
b101000 )!
#100
b101001 *!
b10101001001010011011110001110000 a
b101001 )!
#120
b101010 *!
b10101001001010011011110001110110 a
b101010 )!
#140
b101011 *!
b10101001001010011011110001111101 a
b101011 )!
#160
b101100 *!
b10101001001010011011110010000101 a
b101100 )!
#180
b101101 *!
b10101001001010011011110010001110 a
b101101 )!
#200
b101110 *!
b10101001001010011011110010011000 a
b101110 )!
#220
b101111 *!
b10101001001010011011110010100011 a
b101111 )!
#240
b110000 *!
b10101001001010011011110010101111 a
b110000 )!
#260
b110001 *!
b10101001001010011011110010111100 a
b110001 )!
#280
b110010 *!
b10101001001010011011110011001010 a
b110010 )!
#300
b110011 *!
b10101001001010011011110011011001 a
b110011 )!
#320
b110100 *!
b10101001001010011011110011101001 a
b110100 )!
#340
b110101 *!
b10101001001010011011110011111010 a
b110101 )!
#360
b110110 *!
b10101001001010011011110100001100 a
b110110 )!
#380
b110111 *!
b10101001001010011011110100011111 a
b110111 )!
#400
b111000 *!
b10101001001010011011110100110011 a
b111000 )!
#420
b111001 *!
b10101001001010011011110101001000 a
b111001 )!
#440
b111010 *!
b10101001001010011011110101011110 a
b111010 )!
#460
b111011 *!
b10101001001010011011110101110101 a
b111011 )!
#480
b111100 *!
b10101001001010011011110110001101 a
b111100 )!
#500
b111101 *!
b10101001001010011011110110100110 a
b111101 )!
#520
b111110 *!
b10101001001010011011110111000000 a
b111110 )!
#540
b111111 *!
b10101001001010011011110111011011 a
b111111 )!
#560
b1000000 *!
b10101001001010011011110111110111 a
b1000000 )!
#580
b1000001 *!
b10101001001010011011111000010100 a
b1000001 )!
#600
b1000010 *!
b10101001001010011011111000110010 a
b1000010 )!
#620
b1000011 *!
b10101001001010011011111001010001 a
b1000011 )!
#640
b1000100 *!
b10101001001010011011111001110001 a
b1000100 )!
#660
b1000101 *!
b10101001001010011011111010010010 a
b1000101 )!
#680
b1000110 *!
b10101001001010011011111010110100 a
b1000110 )!
#700
b1000111 *!
b10101001001010011011111011010111 a
b1000111 )!
#720
b1001000 *!
b10101001001010011011111011111011 a
b1001000 )!
#740
b1001001 *!
b10101001001010011011111100100000 a
b1001001 )!
#760
b1001010 *!
b10101001001010011011111101000110 a
b1001010 )!
#780
b1001011 *!
b10101001001010011011111101101101 a
b1001011 )!
#800
b1001100 *!
b10101001001010011011111110010101 a
b1001100 )!
#820
b1001101 *!
b10101001001010011011111110111110 a
b1001101 )!
#840
b1001110 *!
b10101001001010011011111111101000 a
b1001110 )!
#860
b1001111 *!
b10101001001010011100000000010011 a
b1001111 )!
#880
b1010000 *!
b10101001001010011100000000111111 a
b1010000 )!
#900
b1010001 *!
b10101001001010011100000001101100 a
b1010001 )!
#920
b1010010 *!
b10101001001010011100000010011010 a
b1010010 )!
#940
b1010011 *!
b10101001001010011100000011001001 a
b1010011 )!
#960
b1010100 *!
b10101001001010011100000011111001 a
b1010100 )!
#980
b1010101 *!
b10101001001010011100000100101010 a
b1010101 )!
#1000
b1010110 *!
b10101001001010011100000101011100 a
b1010110 )!
#1020
b1010111 *!
b10101001001010011100000110001111 a
b1010111 )!
#1040
b1011000 *!
b10101001001010011100000111000011 a
b1011000 )!
#1060
b1011001 *!
b10101001001010011100000111111000 a
b1011001 )!
#1080
b1011010 *!
b10101001001010011100001000101110 a
b1011010 )!
#1100
b1011011 *!
b10101001001010011100001001100101 a
b1011011 )!
#1120
b1011100 *!
b10101001001010011100001010011101 a
b1011100 )!
#1140
b1011101 *!
b10101001001010011100001011010110 a
b1011101 )!
#1160
b1011110 *!
b10101001001010011100001100010000 a
b1011110 )!
#1180
b1011111 *!
b10101001001010011100001101001011 a
b1011111 )!
#1200
b1100000 *!
b10101001001010011100001110000111 a
b1100000 )!
#1220
b1100001 *!
b10101001001010011100001111000100 a
b1100001 )!
#1240
b1100010 *!
b10101001001010011100010000000010 a
b1100010 )!
#1260
b1100011 *!
b10101001001010011100010001000001 a
b1100011 )!
#1280
b1100100 *!
b10101001001010011100010010000001 a
b1100100 )!
#1300
b1100101 *!
b10101001001010011100010011000010 a
b1100101 )!
#1320
b1100110 *!
b10101001001010011100010100000100 a
b1100110 )!
#1340
b1100111 *!
b10101001001010011100010101000111 a
b1100111 )!
#1360
b1101000 *!
b10101001001010011100010110001011 a
b1101000 )!
#1380
b1101001 *!
b10101001001010011100010111010000 a
b1101001 )!
#1400
b1101010 *!
b10101001001010011100011000010110 a
b1101010 )!
#1420
b1101011 *!
b10101001001010011100011001011101 a
b1101011 )!
#1440
b1101100 *!
b10101001001010011100011010100101 a
b1101100 )!
#1460
b1101101 *!
b10101001001010011100011011101110 a
b1101101 )!
#1480
b1101110 *!
b10101001001010011100011100111000 a
b1101110 )!
#1500
b1101111 *!
b10101001001010011100011110000011 a
b1101111 )!
#1520
b1110000 *!
b10101001001010011100011111001111 a
b1110000 )!
#1540
b1110001 *!
b10101001001010011100100000011100 a
b1110001 )!
#1560
b1110010 *!
b10101001001010011100100001101010 a
b1110010 )!
#1580
b1110011 *!
b10101001001010011100100010111001 a
b1110011 )!
#1600
b1110100 *!
b10101001001010011100100100001001 a
b1110100 )!
#1620
b1110101 *!
b10101001001010011100100101011010 a
b1110101 )!
#1640
b1110110 *!
b10101001001010011100100110101100 a
b1110110 )!
#1660
b1110111 *!
b10101001001010011100100111111111 a
b1110111 )!
#1680
b1111000 *!
b10101001001010011100101001010011 a
b1111000 )!
#1700
b1111001 *!
b10101001001010011100101010101000 a
b1111001 )!
#1720
b1111010 *!
b10101001001010011100101011111110 a
b1111010 )!
#1740
b1111011 *!
b10101001001010011100101101010101 a
b1111011 )!
#1760
b1111100 *!
b10101001001010011100101110101101 a
b1111100 )!
#1780
b1111101 *!
b10101001001010011100110000000110 a
b1111101 )!
#1800
b1111110 *!
b10101001001010011100110001100000 a
b1111110 )!
#1820
b1111111 *!
b10101001001010011100110010111011 a
b1111111 )!
#1840
b10000000 *!
b10101001001010011100110100010111 a
b10000000 )!
#1860
b10000001 *!
b10101001001010011100110101110100 a
b10000001 )!
#1880
b10000010 *!
b10101001001010011100110111010010 a
b10000010 )!
#1900
b10000011 *!
b10101001001010011100111000110001 a
b10000011 )!
#1920
b10000100 *!
b10101001001010011100111010010001 a
b10000100 )!
#1940
b10000101 *!
b10101001001010011100111011110010 a
b10000101 )!
#1960
b10000110 *!
b10101001001010011100111101010100 a
b10000110 )!
#1980
b10000111 *!
b10101001001010011100111110110111 a
b10000111 )!
#2000
b10001000 *!
b10101001001010011101000000011011 a
b10001000 )!
#2020
b10001001 *!
b10101001001010011101000010000000 a
b10001001 )!
#2040
b10001010 *!
b10101001001010011101000011100110 a
b10001010 )!
#2060
b10001011 *!
b10101001001010011101000101001101 a
b10001011 )!
#2080
b10001100 *!
b10101001001010011101000110110101 a
b10001100 )!
#2100
b10001101 *!
b10101001001010011101001000011110 a
b10001101 )!
#2120
b10001110 *!
b10101001001010011101001010001000 a
b10001110 )!
#2140
b10001111 *!
b10101001001010011101001011110011 a
b10001111 )!
#2160
b10010000 *!
b10101001001010011101001101011111 a
b10010000 )!
#2180
b10010001 *!
b10101001001010011101001111001100 a
b10010001 )!
#2200
b10010010 *!
b10101001001010011101010000111010 a
b10010010 )!
#2220
b10010011 *!
b10101001001010011101010010101001 a
b10010011 )!
#2240
b10010100 *!
b10101001001010011101010100011001 a
b10010100 )!
#2260
b10010101 *!
b10101001001010011101010110001010 a
b10010101 )!
#2280
b10010110 *!
b10101001001010011101010111111100 a
b10010110 )!
#2300
b10010111 *!
b10101001001010011101011001101111 a
b10010111 )!
#2320
b10011000 *!
b10101001001010011101011011100011 a
b10011000 )!
#2340
b10011001 *!
b10101001001010011101011101011000 a
b10011001 )!
#2360
b10011010 *!
b10101001001010011101011111001110 a
b10011010 )!
#2380
b10011011 *!
b10101001001010011101100001000101 a
b10011011 )!
#2400
b10011100 *!
b10101001001010011101100010111101 a
b10011100 )!
#2420
b10011101 *!
b10101001001010011101100100110110 a
b10011101 )!
#2440
b10011110 *!
b10101001001010011101100110110000 a
b10011110 )!
#2460
b10011111 *!
b10101001001010011101101000101011 a
b10011111 )!
#2480
b10100000 *!
b10101001001010011101101010100111 a
b10100000 )!
#2500
b10100001 *!
b10101001001010011101101100100100 a
b10100001 )!
#2520
b10100010 *!
b10101001001010011101101110100010 a
b10100010 )!
#2540
b10100011 *!
b10101001001010011101110000100001 a
b10100011 )!
#2560
b10100100 *!
b10101001001010011101110010100001 a
b10100100 )!
#2580
b10100101 *!
b10101001001010011101110100100010 a
b10100101 )!
#2600
b10100110 *!
b10101001001010011101110110100100 a
b10100110 )!
#2620
b10100111 *!
b10101001001010011101111000100111 a
b10100111 )!
#2640
b10101000 *!
b10101001001010011101111010101011 a
b10101000 )!
#2660
b10101001 *!
b10101001001010011101111100110000 a
b10101001 )!
#2680
b10101010 *!
b10101001001010011101111110110110 a
b10101010 )!
#2700
b10101011 *!
b10101001001010011110000000111101 a
b10101011 )!
#2720
b10101100 *!
b10101001001010011110000011000101 a
b10101100 )!
#2740
b10101101 *!
b10101001001010011110000101001110 a
b10101101 )!
#2760
b10101110 *!
b10101001001010011110000111011000 a
b10101110 )!
#2780
b10101111 *!
b10101001001010011110001001100011 a
b10101111 )!
#2800
b10110000 *!
b10101001001010011110001011101111 a
b10110000 )!
#2820
b10110001 *!
b10101001001010011110001101111100 a
b10110001 )!
#2840
b10110010 *!
b10101001001010011110010000001010 a
b10110010 )!
#2860
b10110011 *!
b10101001001010011110010010011001 a
b10110011 )!
#2880
b10110100 *!
b10101001001010011110010100101001 a
b10110100 )!
#2900
b10110101 *!
b10101001001010011110010110111010 a
b10110101 )!
#2920
b10110110 *!
b10101001001010011110011001001100 a
b10110110 )!
#2940
b10110111 *!
b10101001001010011110011011011111 a
b10110111 )!
#2960
b10111000 *!
b10101001001010011110011101110011 a
b10111000 )!
#2980
b10111001 *!
b10101001001010011110100000001000 a
b10111001 )!
#3000
b10111010 *!
b10101001001010011110100010011110 a
b10111010 )!
#3020
b10111011 *!
b10101001001010011110100100110101 a
b10111011 )!
#3040
b10111100 *!
b10101001001010011110100111001101 a
b10111100 )!
#3060
b10111101 *!
b10101001001010011110101001100110 a
b10111101 )!
#3080
b10111110 *!
b10101001001010011110101100000000 a
b10111110 )!
#3100
b10111111 *!
b10101001001010011110101110011011 a
b10111111 )!
#3120
b11000000 *!
b10101001001010011110110000110111 a
b11000000 )!
#3140
b11000001 *!
b10101001001010011110110011010100 a
b11000001 )!
#3160
b11000010 *!
b10101001001010011110110101110010 a
b11000010 )!
#3180
b11000011 *!
b10101001001010011110111000010001 a
b11000011 )!
#3200
b11000100 *!
b10101001001010011110111010110001 a
b11000100 )!
#3220
b11000101 *!
b10101001001010011110111101010010 a
b11000101 )!
#3240
b11000110 *!
b10101001001010011110111111110100 a
b11000110 )!
#3260
b11000111 *!
b10101001001010011111000010010111 a
b11000111 )!
#3280
b11001000 *!
b10101001001010011111000100111011 a
b11001000 )!
#3300
b11001001 *!
b10101001001010011111000111100000 a
b11001001 )!
#3320
b11001010 *!
b10101001001010011111001010000110 a
b11001010 )!
#3340
b11001011 *!
b10101001001010011111001100101101 a
b11001011 )!
#3360
b11001100 *!
b10101001001010011111001111010101 a
b11001100 )!
#3380
b11001101 *!
b10101001001010011111010001111110 a
b11001101 )!
#3400
b11001110 *!
b10101001001010011111010100101000 a
b11001110 )!
#3420
b11001111 *!
b10101001001010011111010111010011 a
b11001111 )!
#3440
b11010000 *!
b10101001001010011111011001111111 a
b11010000 )!
#3460
b11010001 *!
b10101001001010011111011100101100 a
b11010001 )!
#3480
b11010010 *!
b10101001001010011111011111011010 a
b11010010 )!
#3500
b11010011 *!
b10101001001010011111100010001001 a
b11010011 )!
#3520
b11010100 *!
b10101001001010011111100100111001 a
b11010100 )!
#3540
b11010101 *!
b10101001001010011111100111101010 a
b11010101 )!
#3560
b11010110 *!
b10101001001010011111101010011100 a
b11010110 )!
#3580
b11010111 *!
b10101001001010011111101101001111 a
b11010111 )!
#3600
b11011000 *!
b10101001001010011111110000000011 a
b11011000 )!
#3620
b11011001 *!
b10101001001010011111110010111000 a
b11011001 )!
#3640
b11011010 *!
b10101001001010011111110101101110 a
b11011010 )!
#3660
b11011011 *!
b10101001001010011111111000100101 a
b11011011 )!
#3680
b11011100 *!
b10101001001010011111111011011101 a
b11011100 )!
#3700
b11011101 *!
b10101001001010011111111110010110 a
b11011101 )!
#3720
b11011110 *!
b10101001001010100000000001010000 a
b11011110 )!
#3740
b11011111 *!
b10101001001010100000000100001011 a
b11011111 )!
#3760
b11100000 *!
b10101001001010100000000111000111 a
b11100000 )!
#3780
b11100001 *!
b10101001001010100000001010000100 a
b11100001 )!
#3800
b11100010 *!
b10101001001010100000001101000010 a
b11100010 )!
#3820
b11100011 *!
b10101001001010100000010000000001 a
b11100011 )!
#3840
b11100100 *!
b10101001001010100000010011000001 a
b11100100 )!
#3860
b11100101 *!
b10101001001010100000010110000010 a
b11100101 )!
#3880
b11100110 *!
b10101001001010100000011001000100 a
b11100110 )!
#3900
b11100111 *!
b10101001001010100000011100000111 a
b11100111 )!
#3920
b11101000 *!
b10101001001010100000011111001011 a
b11101000 )!
#3940
b11101001 *!
b10101001001010100000100010010000 a
b11101001 )!
#3960
b11101010 *!
b10101001001010100000100101010110 a
b11101010 )!
#3980
b11101011 *!
b10101001001010100000101000011101 a
b11101011 )!
#4000
b11101100 *!
b10101001001010100000101011100101 a
b11101100 )!
#4020
b11101101 *!
b10101001001010100000101110101110 a
b11101101 )!
#4040
b11101110 *!
b10101001001010100000110001111000 a
b11101110 )!
#4060
b11101111 *!
b10101001001010100000110101000011 a
b11101111 )!
#4080
b11110000 *!
b10101001001010100000111000001111 a
b11110000 )!
#4100
b11110001 *!
b10101001001010100000111011011100 a
b11110001 )!
#4120
b11110010 *!
b10101001001010100000111110101010 a
b11110010 )!
#4140
b11110011 *!
b10101001001010100001000001111001 a
b11110011 )!
#4160
b11110100 *!
b10101001001010100001000101001001 a
b11110100 )!
#4180
b11110101 *!
b10101001001010100001001000011010 a
b11110101 )!
#4200
b11110110 *!
b10101001001010100001001011101100 a
b11110110 )!
#4220
b11110111 *!
b10101001001010100001001110111111 a
b11110111 )!
#4240
b11111000 *!
b10101001001010100001010010010011 a
b11111000 )!
#4260
b11111001 *!
b10101001001010100001010101101000 a
b11111001 )!
#4280
b11111010 *!
b10101001001010100001011000111110 a
b11111010 )!
#4300
b11111011 *!
b10101001001010100001011100010101 a
b11111011 )!
#4320
b11111100 *!
b10101001001010100001011111101101 a
b11111100 )!
#4340
b11111101 *!
b10101001001010100001100011000110 a
b11111101 )!
#4360
b11111110 *!
b10101001001010100001100110100000 a
b11111110 )!
#4380
b11111111 *!
b10101001001010100001101001111011 a
b11111111 )!
#4400
b100000000 *!
b10101001001010100001101101010111 a
b100000000 )!
#4420
b100000001 *!
b10101001001010100001110000110100 a
b100000001 )!
#4440
b100000010 *!
b10101001001010100001110100010010 a
b100000010 )!
#4460
b100000011 *!
b10101001001010100001110111110001 a
b100000011 )!
#4480
b100000100 *!
b10101001001010100001111011010001 a
b100000100 )!
#4500
b100000101 *!
b10101001001010100001111110110010 a
b100000101 )!
#4520
b100000110 *!
b10101001001010100010000010010100 a
b100000110 )!
#4540
b100000111 *!
b10101001001010100010000101110111 a
b100000111 )!
#4560
b100001000 *!
b10101001001010100010001001011011 a
b100001000 )!
#4580
b100001001 *!
b10101001001010100010001101000000 a
b100001001 )!
#4600
b100001010 *!
b10101001001010100010010000100110 a
b100001010 )!
#4620
b100001011 *!
b10101001001010100010010100001101 a
b100001011 )!
#4640
b100001100 *!
b10101001001010100010010111110101 a
b100001100 )!
#4660
b100001101 *!
b10101001001010100010011011011110 a
b100001101 )!
#4680
b100001110 *!
b10101001001010100010011111001000 a
b100001110 )!
#4700
b100001111 *!
b10101001001010100010100010110011 a
b100001111 )!
#4720
b100010000 *!
b10101001001010100010100110011111 a
b100010000 )!
#4740
b100010001 *!
b10101001001010100010101010001100 a
b100010001 )!
#4760
b100010010 *!
b10101001001010100010101101111010 a
b100010010 )!
#4780
b100010011 *!
b10101001001010100010110001101001 a
b100010011 )!
#4800
b100010100 *!
b10101001001010100010110101011001 a
b100010100 )!
#4820
b100010101 *!
b10101001001010100010111001001010 a
b100010101 )!
#4840
b100010110 *!
b10101001001010100010111100111100 a
b100010110 )!
#4860
b100010111 *!
b10101001001010100011000000101111 a
b100010111 )!
#4880
b100011000 *!
b10101001001010100011000100100011 a
b100011000 )!
#4900
b100011001 *!
b10101001001010100011001000011000 a
b100011001 )!
#4920
b100011010 *!
b10101001001010100011001100001110 a
b100011010 )!
#4940
b100011011 *!
b10101001001010100011010000000101 a
b100011011 )!
#4960
b100011100 *!
b10101001001010100011010011111101 a
b100011100 )!
#4980
b100011101 *!
b10101001001010100011010111110110 a
b100011101 )!
#5000
b100011110 *!
b10101001001010100011011011110000 a
b100011110 )!
#5020
b100011111 *!
b10101001001010100011011111101011 a
b100011111 )!
#5040
b100100000 *!
b10101001001010100011100011100111 a
b100100000 )!
#5060
b100100001 *!
b10101001001010100011100111100100 a
b100100001 )!
#5080
b100100010 *!
b10101001001010100011101011100010 a
b100100010 )!
#5100
b100100011 *!
b10101001001010100011101111100001 a
b100100011 )!
#5120
b100100100 *!
b10101001001010100011110011100001 a
b100100100 )!
#5140
b100100101 *!
b10101001001010100011110111100010 a
b100100101 )!
#5160
b100100110 *!
b10101001001010100011111011100100 a
b100100110 )!
#5180
b100100111 *!
b10101001001010100011111111100111 a
b100100111 )!
#5200
b100101000 *!
b10101001001010100100000011101011 a
b100101000 )!
#5220
b100101001 *!
b10101001001010100100000111110000 a
b100101001 )!
#5240
b100101010 *!
b10101001001010100100001011110110 a
b100101010 )!
#5260
b100101011 *!
b10101001001010100100001111111101 a
b100101011 )!
#5280
b100101100 *!
b10101001001010100100010100000101 a
b100101100 )!
#5300
b100101101 *!
b10101001001010100100011000001110 a
b100101101 )!
#5320
b100101110 *!
b10101001001010100100011100011000 a
b100101110 )!
#5340
b100101111 *!
b10101001001010100100100000100011 a
b100101111 )!
#5360
b100110000 *!
b10101001001010100100100100101111 a
b100110000 )!
#5380
b100110001 *!
b10101001001010100100101000111100 a
b100110001 )!
#5400
b100110010 *!
b10101001001010100100101101001010 a
b100110010 )!
#5420
b100110011 *!
b10101001001010100100110001011001 a
b100110011 )!
#5440
b100110100 *!
b10101001001010100100110101101001 a
b100110100 )!
#5460
b100110101 *!
b10101001001010100100111001111010 a
b100110101 )!
#5480
b100110110 *!
b10101001001010100100111110001100 a
b100110110 )!
#5500
b100110111 *!
b10101001001010100101000010011111 a
b100110111 )!
#5520
b100111000 *!
b10101001001010100101000110110011 a
b100111000 )!
#5540
b100111001 *!
b10101001001010100101001011001000 a
b100111001 )!
#5560
b100111010 *!
b10101001001010100101001111011110 a
b100111010 )!
#5580
b100111011 *!
b10101001001010100101010011110101 a
b100111011 )!
#5600
b100111100 *!
b10101001001010100101011000001101 a
b100111100 )!
#5620
b100111101 *!
b10101001001010100101011100100110 a
b100111101 )!
#5640
b100111110 *!
b10101001001010100101100001000000 a
b100111110 )!
#5660
b100111111 *!
b10101001001010100101100101011011 a
b100111111 )!
#5680
b101000000 *!
b10101001001010100101101001110111 a
b101000000 )!
#5700
b101000001 *!
b10101001001010100101101110010100 a
b101000001 )!
#5720
b101000010 *!
b10101001001010100101110010110010 a
b101000010 )!
#5740
b101000011 *!
b10101001001010100101110111010001 a
b101000011 )!
#5760
b101000100 *!
b10101001001010100101111011110001 a
b101000100 )!
#5780
b101000101 *!
b10101001001010100110000000010010 a
b101000101 )!
#5800
b101000110 *!
b10101001001010100110000100110100 a
b101000110 )!
#5820
b101000111 *!
b10101001001010100110001001010111 a
b101000111 )!
#5840
b101001000 *!
b10101001001010100110001101111011 a
b101001000 )!
#5860
b101001001 *!
b10101001001010100110010010100000 a
b101001001 )!
#5880
b101001010 *!
b10101001001010100110010111000110 a
b101001010 )!
#5900
b101001011 *!
b10101001001010100110011011101101 a
b101001011 )!
#5920
b101001100 *!
b10101001001010100110100000010101 a
b101001100 )!
#5940
b101001101 *!
b10101001001010100110100100111110 a
b101001101 )!
#5960
b101001110 *!
b10101001001010100110101001101000 a
b101001110 )!
#5980
b101001111 *!
b10101001001010100110101110010011 a
b101001111 )!
#6000
b101010000 *!
b10101001001010100110110010111111 a
b101010000 )!
#6020
b101010001 *!
b10101001001010100110110111101100 a
b101010001 )!
#6040
b101010010 *!
b10101001001010100110111100011010 a
b101010010 )!
#6060
b101010011 *!
b10101001001010100111000001001001 a
b101010011 )!
#6080
b101010100 *!
b10101001001010100111000101111001 a
b101010100 )!
#6100
b101010101 *!
b10101001001010100111001010101010 a
b101010101 )!
#6120
b101010110 *!
b10101001001010100111001111011100 a
b101010110 )!
#6140
b101010111 *!
b10101001001010100111010100001111 a
b101010111 )!
#6160
b101011000 *!
b10101001001010100111011001000011 a
b101011000 )!
#6180
b101011001 *!
b10101001001010100111011101111000 a
b101011001 )!
#6200
b101011010 *!
b10101001001010100111100010101110 a
b101011010 )!
